[{"breed_group": "Sporting",
  "height": {"imperial":"21.5 - 25", "metric":"55 - 64"},
  "id":261,
  "life_span":"12 - 14 years",
  "name":"Wirehaired Vizsla",
  "weight":{"imperial":"45 - 65", "metric":"20 - 29"}},
 {"breed_group":"Non-Sporting",
  "height":{"imperial":"10 - 23", "metric":"25 - 58"},
  "id":262,
  "life_span":"12 - 14 years",
  "name":"Xoloitzcuintli",
  "temperament":
   "Cheerful, Alert, Companionable, Intelligent, Protective, Calm",
  "weight":{"imperial":"9 - 31", "metric":"4 - 14"}},
 {"bred_for":"Small vermin hunting",
  "breed_group":"Toy",
  "height":{"imperial":"8 - 9", "metric":"20 - 23"},
  "id":264,
  "life_span":"12 - 16 years",
  "name":"Yorkshire Terrier",
  "temperament":"Bold, Independent, Confident, Intelligent, Courageous",
  "weight":{"imperial":"4 - 7", "metric":"2 - 3"}
 }]